{
  "type": "service_account",
  "project_id": "clear-idea-291220",
  "private_key_id": "9cefd1a1f9ec15c198c3271c5eb87c2892057913",
  "private_key": "-----BEGIN PRIVATE KEY-----\nMIIEvAIBADANBgkqhkiG9w0BAQEFAASCBKYwggSiAgEAAoIBAQD03fRmEi8V6GQf\nlUjCPsd6Bh7yRSzWJcyoH/LNj1gTo5TtzvQruo7NLfE/J9HAPAT8xz2MhttN+LFU\nzGTrX3xA9aX/2nCwS9ijcSJnLx7WI85V2lrZJcLORzgkyLcvoGdWuPuZKjYDZCkt\neAVuyzPOwLcf/jPi/VcMiUuUdSSsBHgzmGAGiGCZRUu0zze1S6e2sbgVzh7Lba4C\naoabGI1vrewMh7AoH1OV+YYHXaNxBmzZBFNK+OMdKN0mOccozih0KtZILz7FXqj2\nA1fjd7CWH9a5SHE+OvkLQlAiUqj6tOdd2s1kIf5nO5XsZH72ZUa6jzjMDBhZf6cR\n2ix6GWzDAgMBAAECgf8LblsvJ2joK/iowguR7MC9iqm5//4zdIY++KhBd+qdKD+H\n1X5UWhNkntIBLVCp9oe4hnt+vBg6iRjNPoE7WJGkEkwjhO5tfq6CwJWg1yFappyP\nYHJ959l0CQdDHsZLV0g6dmM+a2IzOceZPDDSilSYCYU3tV16fwjaEf0sexRHvDCn\npT6fKGVv7zhiKoF81xOC3DSRUjP37PUyJG4We8tdZfHnwwKVsj9AIVL5KLUL+jQ8\nc8pv+7uYOYnOSgx8F8UULbsWRzkCvErBHKYhObZrT4UFQ+GRzoAUieYH7wdQ01XZ\np3X19akmwqz00FpPqwe8+M63uQI/0L6nNjZB5hUCgYEA/YuCS3xeBhfZeVpCpHFU\naXhl04pzBkTYfmDH3mZdMy+dv7V7iPYFRr6Gn0xB6QpwHw4d8Na28gsv+4JzUsxG\nskQq0ymcGDkJUiLYLpgmkaAk2SWvnIEqU9Vx29rXUMa+KweET4f0/zCgjXMuifD7\niMCWnz9fCBKWp4WAHbRQFg8CgYEA9zzvSCX7WOPC9izkoWdlmWv4gHI35ZdbwN/2\nsY6TdC2oF/o00QUmQ1LVREdV0HQQZ+FhtoJWPHknzktGhjknfrDJ6vKzKFcL3NE8\nkEVlt+YnJK8ZJtJ0KaDsa2/TiDO6lldnJAjuwFpQnY5vzw93bd8LXMlaFve5CNTl\nc9EQ0g0CgYEAuAoTGt38lemr50VYSGsm/aPyLdo6YhuJFjsD+XBOSIBQvj5qnGEQ\nNWjI6Up+MT1tY21o2E/S3eC3BJaNRVWYH4ARodN7Ra3pESDP0QqKPHyFIsYTMcQk\nSFQP4Kl6T1zj3vIG3X/vm2jdsa8g4en1ey9oZdGnFoH/rzvdYjJnS4sCgYAU1OuM\ndrbQ7I/20h2Jg/7JiJFtsTIIhFJU1AojN9IwzdAGBS0CF577uTUDBcezQrRHLHRh\nPmYpvkOeXDVbBeHQCPFafIyf74WuW2rw9Qf3EMtnieFipgTnpQmGm+uE5GbqV/72\nyFHlnzZ/sAq3taPofAynCsguezz6A4Y51fnG2QKBgQDgQ/9jXNXyYqbfL10gnOke\n4xNct13AtEq3NfQFrhwGF07CLI1ZMGgoMy9AG5H3urU0MC4hCgC5UUbU6jV5xPvZ\nyYtN5AsuNGsaMbXJEy8tJGNkTp/6h1vMM/mdqbB0oV2YdCifmHI1tGEaEFeDGIQH\nw0OESWCKpKnvlli9pSljYQ==\n-----END PRIVATE KEY-----\n",
  "client_email": "cloudvis@clear-idea-291220.iam.gserviceaccount.com",
  "client_id": "106100226942919343628",
  "auth_uri": "https://accounts.google.com/o/oauth2/auth",
  "token_uri": "https://oauth2.googleapis.com/token",
  "auth_provider_x509_cert_url": "https://www.googleapis.com/oauth2/v1/certs",
  "client_x509_cert_url": "https://www.googleapis.com/robot/v1/metadata/x509/cloudvis%40clear-idea-291220.iam.gserviceaccount.com"
}
